{
    "cartId":"aa8294f1-d4c9-4312-969a-27322f202749",
    "termId":"kuali.atp.2012Fall",
    "items":[
        {
            "cartItemId":"ABCD-1111",
            "courseCode":"MATH100",
            "regCode":"0101",
            "courseTitle":"Algebra 1",
            "credits":"3",
            "grading":"kuali.resultComponent.grade.passFail",
            "creditOptions":["3", "4", "6"],
            "gradingOptions":[
                {
                    "key":"kuali.resultComponent.grade.letter",
                    "value":"Letter"
                },
                {
                    "key":"kuali.resultComponent.grade.passFail",
                    "value":"Pass/Fail"
                }
            ],
            "schedule":[
                {
                    "type":"LEC",
                    "location":{
                        "building":"MTH",
                        "room":"134B"
                    },
                    "time":{
                        "days":"MWF",
                        "startTime":"9am",
                        "endTime":"10am"
                    }
                }
            ]
        },
        {
            "cartItemId":"ABCD-2222",
            "courseCode":"ENGL200",
            "regCode":"0101",
            "courseTitle":"Modern Literature",
            "credits":"1",
            "grading":"kuali.resultComponent.grade.letter",
            "creditOptions":["1"],
            "gradingOptions":[
                {
                    "key":"kuali.resultComponent.grade.letter",
                    "value":"Letter"
                },
                {
                    "key":"kuali.resultComponent.grade.passFail",
                    "value":"Pass/Fail"
                }
            ],
            "schedule":[
                {
                    "type":"LEC",
                    "location":{
                        "building":"EN",
                        "room":"10"
                    },
                    "time":{
                        "days":"MWF",
                        "startTime":"11am",
                        "endTime":"12pm"
                    }
                }
            ]

        },
        {
            "cartItemId":"ABCD-3333",
            "courseCode":"CHEM300",
            "regCode":"0101",
            "courseTitle":"Organic Chemistry",
            "credits":"3",
            "grading":"kuali.resultComponent.grade.letter",
            "creditOptions":["3"],
            "gradingOptions":[
                {
                    "key":"kuali.resultComponent.grade.letter",
                    "value":"Letter"
                }
            ],
            "schedule":[
                {
                    "type":"LEC",
                    "location":{
                        "building":"CHM",
                        "room":"10"
                    },
                    "time":{
                        "days":"MWF",
                        "startTime":"11am",
                        "endTime":"12pm"
                    }
                },
                {
                    "type":"LAB",
                    "location":{
                        "building":"CHM",
                        "room":"10"
                    },
                    "time":{
                        "days":"TTh",
                        "startTime":"11am",
                        "endTime":"12pm"
                    }
                }
            ]

        }
    ]
}