(BSCI105) [LEC/LAB|LEC]
(BSCI106) [LEC/LAB|LEC]
(BSCI120) [LEC/DIS]
(BSCI121) [LEC]
(BSCI126) [LEC/DIS]
(BSCI135) [LEC/LAB]
(BSCI189) [LEC/LAB]
(BSCI201) [LEC/LAB]
(BSCI202) [LEC/LAB]
(BSCI207) [LEC]
(BSCI215) [LEC]
(BSCI222) [LEC/DIS]
(BSCI223) [LEC/LAB]
(BSCI258) [LEC]
(BSCI279) [LEC|LAB]
(BSCI283) [LEC/LAB]
(BSCI288) [LEC]
(BSCI289) [LEC]
(BSCI329) [LEC]
(BSCI330) [LEC/LAB]
(BSCI338) [LEC]
(BSCI348) [LEC|LEC/LAB]
(BSCI353) [LEC]
(BSCI360) [LEC/DIS]
(BSCI361) [LEC/DIS]
(BSCI363) [LEC]
(BSCI370) [LEC]
(BSCI373) [LEC]
(BSCI379) [LEC]
(BSCI389) [LEC]
(BSCI392) [LEC]
(BSCI393) [LAB]
(BSCI398) [LEC]
(BSCI399) [LEC]
(BSCI410) [LEC]
(BSCI411) [LEC/LAB]
(BSCI414) [LEC/LAB]
(BSCI415) [LAB]
(BSCI420) [LEC]
(BSCI421) [LEC/LAB]
(BSCI422) [LEC]
(BSCI424) [LEC/LAB]
(BSCI425) [LEC/DIS]
(BSCI427) [LEC]
(BSCI437) [LEC]
(BSCI440) [LEC/DIS]
(BSCI441) [LEC/LAB]
(BSCI442) [LEC/LAB]
(BSCI443) [LEC]
(BSCI446) [LEC]
(BSCI447) [LEC]
(BSCI453) [LEC]
(BSCI454) [LAB]
(BSCI465) [LEC]
(BSCI467) [LEC|LEC/LAB]
(BSCI471) [LEC]
(BSCI473) [LEC]
(BSCI481) [LEC/LAB]
(CHEM131) [LEC/DIS]
(CHEM132) [LAB]
(CHEM135) [LEC/DIS]
(CHEM136) [LAB]
(CHEM146) [LEC/DIS]
(CHEM147) [LAB]
(CHEM231) [LEC/DIS]
(CHEM232) [LAB]
(CHEM241) [LEC/DIS]
(CHEM242) [LEC/LAB]
(CHEM247) [LEC/LAB/DIS]
(CHEM271) [LEC/DIS]
(CHEM272) [LEC/LAB]
(CHEM277) [LEC/LAB]
(CHEM398) [LEC]
(CHEM399) [LEC]
(CHEM403) [LEC]
(CHEM425) [LEC/LAB]
(CHEM441) [LEC]
(CHEM460) [LEC]
(CHEM474) [LEC]
(CHEM481) [LEC]
(CHEM482) [LEC]
(CHEM483) [DIS|LAB]
(CHEM484) [DIS/LAB]
(CHEM601) [LEC]
(CHEM608) [LEC]
(CHEM611) [LEC]
(CHEM626) [LEC]
(CHEM640) [LEC]
(CHEM641) [LEC]
(CHEM684) [LEC]
(CHEM689) [LEC]
(CHEM690) [LEC]
(CHEM699) [LEC]
(CHEM799) [LEC]
(CHEM889) [LEC]
(CHEM898) [LEC]
(CHEM899) [LEC]
(ENGL101) [LEC]
(ENGL201) [LEC|LEC/DIS]
(ENGL202) [LEC|LEC/DIS]
(ENGL206) [LEC|LEC/DIS]
(ENGL211) [LEC|LEC/DIS]
(ENGL212) [LEC|LEC/DIS]
(ENGL221) [LEC|LEC/DIS]
(ENGL222) [LEC|LEC/DIS]
(ENGL233) [LEC|LEC/DIS]
(ENGL234) [LEC/DIS|LEC]
(ENGL241) [LEC/DIS|LEC]
(ENGL243) [LEC/DIS|LEC]
(ENGL244) [LEC|LEC/DIS]
(ENGL245) [LEC/LAB/DIS]
(ENGL250) [LEC|LEC/DIS]
(ENGL262) [LEC|LEC/DIS]
(ENGL265) [LEC|LEC/DIS]
(ENGL271) [LEC|LEC/DIS]
(ENGL272) [LEC|LEC/DIS]
(ENGL273) [LEC|LEC/DIS]
(ENGL278) [LEC|LEC/DIS]
(ENGL280) [LEC|LEC/DIS]
(ENGL281) [LEC|LEC/DIS]
(ENGL282) [LEC|LEC/DIS]
(ENGL289) [LEC/DIS|LEC]
(ENGL291) [LEC|LEC/DIS]
(ENGL293) [LEC|LEC/DIS]
(ENGL295) [LEC|LEC/DIS]
(ENGL301) [LEC|LEC/DIS]
(ENGL304) [LEC/DIS|LEC]
(ENGL305) [LEC|LEC/DIS]
(ENGL310) [LEC|LEC/DIS]
(ENGL311) [LEC|LEC/DIS]
(ENGL313) [LEC|LEC/DIS]
(ENGL317) [LEC|LEC/DIS]
(ENGL329) [LEC/LAB]
(ENGL346) [LEC]
(ENGL348) [LEC]
(ENGL352) [LEC]
(ENGL353) [LEC]
(ENGL362) [LEC]
(ENGL368) [LEC]
(ENGL373) [LEC]
(ENGL379) [LEC]
(ENGL381) [LEC]
(ENGL383) [LEC]
(ENGL384) [LEC]
(ENGL388) [LEC]
(ENGL390) [LEC]
(ENGL391) [LEC]
(ENGL392) [LEC]
(ENGL393) [LEC]
(ENGL394) [LEC]
(ENGL395) [LEC]
(ENGL402) [LEC]
(ENGL403) [LEC]
(ENGL404) [LEC]
(ENGL408) [LEC]
(ENGL416) [LEC]
(ENGL420) [LEC]
(ENGL429) [LEC]
(ENGL433) [LEC]
(ENGL440) [LEC]
(ENGL444) [LEC]
(ENGL454) [LEC]
(ENGL455) [LEC]
(ENGL457) [LEC]
(ENGL465) [LEC]
(ENGL466) [LEC]
(ENGL467) [LEC]
(ENGL468) [LEC]
(ENGL470) [LEC]
(ENGL472) [LEC]
(ENGL475) [LEC]
(ENGL478) [LEC]
(ENGL479) [LEC]
(ENGL487) [LEC]
(ENGL488) [LEC]
(ENGL489) [LEC]
(ENGL494) [LEC]
(ENGL495) [LEC]
(ENGL498) [LEC]
(ENGL499) [LEC]
(ENGL601) [LEC]
(ENGL602) [LEC]
(ENGL607) [LEC]
(ENGL611) [LEC]
(ENGL621) [LEC]
(ENGL625) [LEC]
(ENGL631) [LEC]
(ENGL688) [LEC]
(ENGL689) [LEC]
(ENGL699) [LEC]
(ENGL702) [LEC]
(ENGL749) [LEC]
(ENGL758) [LEC]
(ENGL798) [LEC]
(ENGL799) [LEC]
(ENGL878) [LEC]
(ENGL879) [LEC]
(ENGL888) [LEC]
(ENGL898) [LEC]
(ENGL899) [LEC]
(HIST110) [LEC/DIS|LEC]
(HIST113) [LEC/DIS|LEC]
(HIST120) [LEC/DIS|LEC]
(HIST122) [LEC/DIS|LEC]
(HIST130) [LEC/DIS|LEC]
(HIST133) [LEC/DIS|LEC]
(HIST136) [LEC/DIS|LEC]
(HIST137) [LEC/DIS|LEC]
(HIST140) [LEC/DIS|LEC]
(HIST200) [LEC/DIS|LEC]
(HIST201) [LEC/DIS|LEC]
(HIST204) [LEC|LEC/DIS]
(HIST206) [LEC/DIS|LEC]
(HIST208) [LEC/DIS|LEC]
(HIST212) [LEC/DIS|LEC]
(HIST213) [LEC/DIS|LEC]
(HIST219) [LEC|LEC/DIS]
(HIST220) [LEC/DIS|LEC]
(HIST221) [LEC/DIS|LEC]
(HIST224) [LEC/DIS|LEC]
(HIST232) [LEC|LEC/DIS]
(HIST233) [LEC|LEC/DIS]
(HIST250) [LEC/DIS|LEC]
(HIST255) [LEC|LEC/DIS]
(HIST266) [LEC|LEC/DIS]
(HIST269) [LEC|LEC/DIS]
(HIST282) [LEC/DIS|LEC]
(HIST284) [LEC/DIS|LEC]
(HIST289) [LEC/DIS|LEC]
(HIST299) [LEC|LEC/DIS]
(HIST310) [LEC]
(HIST319) [LEC]
(HIST326) [LEC]
(HIST329) [LEC]
(HIST330) [LEC]
(HIST332) [LEC]
(HIST352) [LEC]
(HIST353) [LEC]
(HIST354) [LEC]
(HIST355) [LEC]
(HIST356) [LEC]
(HIST357) [LEC]
(HIST369) [LEC]
(HIST375) [LEC]
(HIST376) [LEC]
(HIST386) [LEC]
(HIST395) [LEC/DIS]
(HIST398) [LEC/DIS]
(HIST404) [LEC]
(HIST405) [LEC]
(HIST408) [LEC/DIS]
(HIST419) [LEC]
(HIST428) [LEC]
(HIST429) [LEC|LEC/DIS]
(HIST430) [LEC]
(HIST436) [LEC]
(HIST447) [LEC]
(HIST454) [LEC]
(HIST462) [LEC]
(HIST463) [LEC]
(HIST467) [LEC]
(HIST469) [LEC]
(HIST476) [LEC]
(HIST481) [LEC]
(HIST482) [LEC]
(HIST491) [LEC]
(HIST492) [LEC/DIS]
(HIST493) [LEC]
(HIST499) [LEC]
(HIST601) [LEC]
(HIST607) [LEC]
(HIST608) [LEC]
(HIST619) [LEC]
(HIST639) [LEC]
(HIST708) [LEC]
(HIST709) [LEC]
(HIST799) [LEC]
(HIST810) [LEC]
(HIST811) [LEC]
(HIST819) [LEC]
(HIST898) [LEC]
(HIST899) [LEC]
(PHYS102) [LEC]
(PHYS103) [LAB]
(PHYS105) [LEC/DIS]
(PHYS111) [LEC]
(PHYS115) [LAB]
(PHYS121) [LEC/LAB/DIS]
(PHYS122) [LEC/LAB/DIS]
(PHYS131) [LEC/LAB/DIS]
(PHYS141) [LEC/LAB/DIS]
(PHYS161) [LEC/DIS]
(PHYS170) [LEC]
(PHYS171) [LEC]
(PHYS174) [LAB]
(PHYS199) [LEC/DIS]
(PHYS260) [LEC/DIS]
(PHYS261) [LAB]
(PHYS270) [LEC/DIS]
(PHYS271) [LAB]
(PHYS272) [LEC]
(PHYS273) [LEC]
(PHYS275) [LAB]
(PHYS276) [LAB]
(PHYS299) [LEC]
(PHYS374) [LEC]
(PHYS375) [LEC]
(PHYS386) [LEC]
(PHYS389) [LEC]
(PHYS398) [LEC]
(PHYS399) [LEC]
(PHYS401) [LEC]
(PHYS402) [LEC]
(PHYS404) [LEC]
(PHYS405) [LAB]
(PHYS407) [LEC]
(PHYS410) [LEC]
(PHYS411) [LEC/DIS]
(PHYS420) [LEC]
(PHYS431) [LEC]
(PHYS499) [LEC]
(PHYS601) [LEC]
(PHYS604) [LEC]
(PHYS622) [LEC]
(PHYS624) [LEC]
(PHYS675) [LEC]
(PHYS715) [LEC]
(PHYS721) [LEC]
(PHYS728) [LEC]
(PHYS731) [LEC]
(PHYS738) [LEC]
(PHYS739) [LEC]
(PHYS748) [LEC]
(PHYS749) [LEC]
(PHYS751) [LEC]
(PHYS758) [LEC]
(PHYS759) [LEC]
(PHYS761) [LEC]
(PHYS769) [LEC]
(PHYS778) [LEC]
(PHYS779) [LEC]
(PHYS798) [LEC]
(PHYS799) [LEC]
(PHYS838) [LEC]
(PHYS898) [LEC]
(PHYS899) [LEC]
(WMST200) [LEC|LEC/DIS]
(WMST212) [LEC/DIS|LEC]
(WMST250) [LEC|LEC/DIS]
(WMST255) [LEC|LEC/DIS]
(WMST263) [LEC|LEC/DIS]
(WMST269) [LEC|LEC/DIS]
(WMST275) [LEC|LEC/DIS]
(WMST298) [LEC/DIS|LEC]
(WMST300) [LEC|LEC/DIS]
(WMST314) [LEC|LEC/DIS]
(WMST325) [LEC|LEC/DIS]
(WMST336) [LEC|LEC/DIS]
(WMST348) [LEC|LEC/DIS]
(WMST369) [LEC|LEC/DIS]
(WMST386) [LEC|LEC/DIS]
(WMST400) [LEC|LEC/DIS]
(WMST408) [LEC|LEC/DIS]
(WMST444) [LEC|LEC/DIS]
(WMST452) [LEC|LEC/DIS]
(WMST453) [LEC|LEC/DIS]
(WMST456) [LEC/DIS|LEC]
(WMST471) [LEC|LEC/DIS]
(WMST488) [LEC]
(WMST498) [LEC]
(WMST499) [LEC]
(WMST601) [LEC]
(WMST618) [LEC]
(WMST619) [LEC]
(WMST628) [LEC]
(WMST698) [LEC]
(WMST699) [LEC]
(WMST709) [LEC]
(WMST799) [LEC]
(WMST898) [LEC]
(WMST899) [LEC]
[(LEC/DIS), (LAB), (LEC/LAB/DIS), (DIS), (LEC/LAB), (LEC), (DIS/LAB)]
